Lab Eleven – Point Estimation and Resampling – Portfolio
…
}
results = tibble(Sn1pois,
                 Snpois,
                 Sn1binom,
                 Snbinom,
                 Sn1norm,
                 Snnorm,
                 Sn1exp,
                 Snexp)

results

# A tibble: 1,000 × 8
   Sn1pois Snpois Sn1binom Snbinom Sn1norm Snnorm Sn1exp Snexp
     <dbl>  <dbl>    <dbl>   <dbl>   <dbl>  <dbl>  <dbl> <dbl>
 1    1.40   1.33    2.66    2.53     2.80   2.66  2.18  2.07 
 2    3.46   3.29    1.52    1.44     2.14   2.03  2.95  2.81 
 3    1.37   1.3     1.82    1.73     1.65   1.57  3.95  3.75 
 4    1.82   1.73    1.04    0.987    1.87   1.77  2.68  2.55 
 5    2.24   2.13    0.787   0.748    1.44   1.37  0.427 0.406
 6    2.05   1.95    2.37    2.25     2.13   2.02  1.09  1.03 
 7    1.46   1.39    1.08    1.03     1.13   1.08  2.89  2.74 
 8    3.06   2.91    1.41    1.34     2.34   2.22  1.43  1.36 
 9    1.71   1.63    1.33    1.26     1.83   1.73  2.01  1.91 
10    1.08   1.03    1.01    0.96     1.33   1.26  1.25  1.19 
# ℹ 990 more rows
…
}
results = tibble(Sn1pois,
                 Snpois,
                 Sn1binom,
                 Snbinom,
                 Sn1norm,
                 Snnorm,
                 Sn1exp,
                 Snexp)

results

# A tibble: 1,000 × 8
   Sn1pois Snpois Sn1binom Snbinom Sn1norm Snnorm Sn1exp Snexp
     <dbl>  <dbl>    <dbl>   <dbl>   <dbl>  <dbl>  <dbl> <dbl>
 1    1.40   1.33    2.66    2.53     2.80   2.66  2.18  2.07 
 2    3.46   3.29    1.52    1.44     2.14   2.03  2.95  2.81 
 3    1.37   1.3     1.82    1.73     1.65   1.57  3.95  3.75 
 4    1.82   1.73    1.04    0.987    1.87   1.77  2.68  2.55 
 5    2.24   2.13    0.787   0.748    1.44   1.37  0.427 0.406
 6    2.05   1.95    2.37    2.25     2.13   2.02  1.09  1.03 
 7    1.46   1.39    1.08    1.03     1.13   1.08  2.89  2.74 
 8    3.06   2.91    1.41    1.34     2.34   2.22  1.43  1.36 
 9    1.71   1.63    1.33    1.26     1.83   1.73  2.01  1.91 
10    1.08   1.03    1.01    0.96     1.33   1.26  1.25  1.19 
# ℹ 990 more rows
…
}
results = tibble(Sn1pois,
                 Snpois,
                 Sn1binom,
                 Snbinom,
                 Sn1norm,
                 Snnorm,
                 Sn1exp,
                 Snexp)

results

# A tibble: 1,000 × 8
   Sn1pois Snpois Sn1binom Snbinom Sn1norm Snnorm Sn1exp Snexp
     <dbl>  <dbl>    <dbl>   <dbl>   <dbl>  <dbl>  <dbl> <dbl>
 1    2.38   2.33     2.27    2.23    1.97   1.93  1.57  1.53 
 2    2.31   2.27     2.14    2.10    1.67   1.63  2.82  2.76 
 3    2.21   2.17     2.13    2.09    1.53   1.50  1.93  1.89 
 4    2.12   2.08     1.46    1.43    2.22   2.18  1.14  1.11 
 5    1.56   1.53     1.55    1.52    1.54   1.51  1.23  1.21 
 6    2.25   2.20     2.16    2.12    2.42   2.37  2.71  2.65 
 7    1.99   1.95     1.40    1.37    2.38   2.33  1.93  1.89 
 8    1.43   1.40     1.87    1.83    2.60   2.55  0.716 0.702
 9    2.64   2.59     1.97    1.93    1.50   1.47  3.82  3.75 
10    1.88   1.84     1.59    1.56    2.74   2.68  1.52  1.49 
# ℹ 990 more rows
…
}
results = tibble(Sn1pois,
                 Snpois,
                 Sn1binom,
                 Snbinom,
                 Sn1norm,
                 Snnorm,
                 Sn1exp,
                 Snexp)

results

# A tibble: 1,000 × 8
   Sn1pois Snpois Sn1binom Snbinom Sn1norm Snnorm Sn1exp Snexp
     <dbl>  <dbl>    <dbl>   <dbl>   <dbl>  <dbl>  <dbl> <dbl>
 1    2.32   2.30     2.31    2.29    2.14   2.12   2.49  2.46
 2    2.10   2.08     1.29    1.28    1.77   1.75   1.30  1.28
 3    1.60   1.58     2.43    2.40    2.10   2.08   2.57  2.55
 4    2.04   2.02     1.78    1.76    1.75   1.73   1.10  1.09
 5    1.89   1.87     1.67    1.65    2.12   2.10   1.48  1.47
 6    2.07   2.05     2.01    1.99    1.36   1.35   1.49  1.48
 7    2.12   2.10     2.42    2.39    2.51   2.48   1.33  1.32
 8    1.69   1.68     1.55    1.53    2.14   2.12   1.46  1.44
 9    2.08   2.06     1.82    1.80    1.95   1.93   1.95  1.93
10    2.61   2.58     2.40    2.37    1.62   1.61   2.56  2.54
# ℹ 990 more rows
…
}
results = tibble(Sn1pois,
                 Snpois,
                 Sn1binom,
                 Snbinom,
                 Sn1norm,
                 Snnorm,
                 Sn1exp,
                 Snexp)

results

# A tibble: 1,000 × 8
   Sn1pois Snpois Sn1binom Snbinom Sn1norm Snnorm Sn1exp Snexp
     <dbl>  <dbl>    <dbl>   <dbl>   <dbl>  <dbl>  <dbl> <dbl>
 1    1.95   1.95     1.77    1.77    1.98   1.97   1.75  1.75
 2    1.99   1.99     2.12    2.12    1.87   1.87   2.21  2.21
 3    2.15   2.15     1.99    1.99    2.06   2.06   1.98  1.97
 4    1.88   1.88     2.08    2.08    2.08   2.08   1.75  1.74
 5    1.94   1.93     2.09    2.09    1.77   1.77   1.69  1.69
 6    2.03   2.03     2.12    2.12    2.03   2.03   2.12  2.12
 7    2.08   2.07     1.99    1.98    1.96   1.95   2.18  2.17
 8    1.93   1.93     2.07    2.07    1.92   1.92   1.71  1.71
 9    2.21   2.20     1.91    1.90    1.99   1.99   2.28  2.28
10    1.83   1.83     2.08    2.07    1.67   1.67   2.00  1.99
# ℹ 990 more rows
…
